<?xml version="1.0" encoding="utf-8"?>
<!-- Generator: Adobe Illustrator 24.0.2, SVG Export Plug-In . SVG Version: 6.00 Build 0)  -->
<svg version="1.1" id="Layer_1" xmlns="http://www.w3.org/2000/svg" xmlns:xlink="http://www.w3.org/1999/xlink" x="0px" y="0px"
	 viewBox="0 0 19 19" style="enable-background:new 0 0 19 19;" xml:space="preserve">
<style type="text/css">
	.st0{fill:#FFFFFF;}
</style>
<path class="st0" d="M18.3,3.4c0,0.1,0,0.3-0.1,0.4C18.2,3.9,18.1,4,18,4.1L16.2,6l-3.8-3.8l1.9-1.9c0.1-0.1,0.2-0.2,0.3-0.2
	C14.7,0,14.8,0,15,0c0.1,0,0.3,0,0.4,0.1c0.1,0.1,0.2,0.1,0.3,0.2L18,2.7c0.1,0.1,0.2,0.2,0.2,0.3S18.3,3.3,18.3,3.4z M0,14.5v3.8
	h3.8L15.1,7.1l-3.8-3.8L0,14.5z"/>
</svg>
