<?xml version="1.0" encoding="utf-8"?>
<!-- Generator: Adobe Illustrator 24.0.2, SVG Export Plug-In . SVG Version: 6.00 Build 0)  -->
<svg version="1.1" id="Layer_1" xmlns="http://www.w3.org/2000/svg" xmlns:xlink="http://www.w3.org/1999/xlink" x="0px" y="0px"
	 viewBox="0 0 14 18" style="enable-background:new 0 0 14 18;" xml:space="preserve">
<style type="text/css">
	.st0{fill:#FFFFFF;}
</style>
<path class="st0" d="M1.1,3.4h11.3V16c0,1.1-0.8,2-1.9,2H3c-1,0-1.9-0.9-1.9-2V3.4z M10.7,1.1L9,0H4.5L2.8,1.1H0v1.1h1.1h11.3h1.1
	V1.1H10.7z"/>
</svg>
