<svg width="17" height="20" viewBox="0 0 17 20" fill="none" xmlns="http://www.w3.org/2000/svg">
<path fill-rule="evenodd" clip-rule="evenodd" d="M8.14746 15.8536L2.14746 9.85355C1.83248 9.53857 2.05556 9 2.50101 9H6.00101V0.5C6.00101 0.223858 6.22486 0 6.50101 0H10.501C10.7772 0 11.001 0.223858 11.001 0.5V9H14.501C14.9465 9 15.1695 9.53857 14.8546 9.85355L8.85455 15.8536C8.65929 16.0488 8.34272 16.0488 8.14746 15.8536ZM16.5096 18H0.490448C0.219584 18 0 18.214 0 18.5047V19.4953C0 19.774 0.214948 20 0.490448 20H16.5096C16.7804 20 17 19.786 17 19.4953V18.5047C17 18.226 16.7851 18 16.5096 18Z" fill="white"/>
</svg>
