<svg width="20" height="20" viewBox="0 0 20 20" fill="none" xmlns="http://www.w3.org/2000/svg">
<path d="M0.770688 1.34706e-06C0.632261 -0.000257586 0.496328 0.036843 0.377225 0.107391C0.258122 0.177939 0.160262 0.27932 0.0939638 0.400843C0.0276659 0.522366 -0.00461284 0.659528 0.000531481 0.797865C0.00567581 0.936202 0.0480525 1.07059 0.123193 1.18685L1.34007 3.0783H6.15189C6.25434 3.07603 6.3562 3.09424 6.45151 3.13188C6.54682 3.16951 6.63365 3.22581 6.70691 3.29746C6.78017 3.36911 6.83837 3.45467 6.87811 3.54913C6.91785 3.64358 6.93832 3.74503 6.93832 3.8475C6.93832 3.94997 6.91785 4.05142 6.87811 4.14587C6.83837 4.24033 6.78017 4.32589 6.70691 4.39754C6.63365 4.46919 6.54682 4.52549 6.45151 4.56312C6.3562 4.60076 6.25434 4.61897 6.15189 4.6167H2.32855L6.92556 11.7664V19.233C6.92595 19.3638 6.95967 19.4923 7.02354 19.6064C7.08742 19.7206 7.17933 19.8165 7.29061 19.8852C7.40188 19.954 7.52883 19.9932 7.65948 19.9992C7.79012 20.0052 7.92014 19.9778 8.03725 19.9196L12.6478 17.615C12.7758 17.5513 12.8836 17.4532 12.9589 17.3316C13.0343 17.2101 13.0743 17.0699 13.0744 16.9269V11.7664L19.8768 1.18685C19.9519 1.07059 19.9943 0.936202 19.9995 0.797865C20.0046 0.659528 19.9723 0.522366 19.906 0.400843C19.8397 0.27932 19.7419 0.177939 19.6228 0.107391C19.5037 0.0368429 19.3677 -0.000257675 19.2293 1.34706e-06H0.770688ZM8.46391 3.0783H9.23008C9.33253 3.07603 9.43439 3.09424 9.5297 3.13188C9.62501 3.16951 9.71185 3.22581 9.7851 3.29746C9.85836 3.36911 9.91656 3.45467 9.9563 3.54913C9.99604 3.64358 10.0165 3.74503 10.0165 3.8475C10.0165 3.94997 9.99604 4.05142 9.9563 4.14587C9.91656 4.24033 9.85836 4.32589 9.7851 4.39754C9.71185 4.46919 9.62501 4.52549 9.5297 4.56312C9.43439 4.60076 9.33253 4.61897 9.23008 4.6167H8.46391C8.36147 4.61897 8.2596 4.60076 8.16429 4.56312C8.06898 4.52549 7.98215 4.46919 7.90889 4.39754C7.83564 4.32589 7.77743 4.24033 7.73769 4.14587C7.69795 4.05142 7.67748 3.94997 7.67748 3.8475C7.67748 3.74503 7.69795 3.64358 7.73769 3.54913C7.77743 3.45467 7.83564 3.36911 7.90889 3.29746C7.98215 3.22581 8.06898 3.16951 8.16429 3.13188C8.2596 3.09424 8.36147 3.07603 8.46391 3.0783Z" fill="white"/>
</svg>
