<?xml version="1.0" encoding="utf-8"?>
<!-- Generator: Adobe Illustrator 24.0.2, SVG Export Plug-In . SVG Version: 6.00 Build 0)  -->
<svg version="1.1" id="Layer_1" xmlns="http://www.w3.org/2000/svg" xmlns:xlink="http://www.w3.org/1999/xlink" x="0px" y="0px"
	 viewBox="0 0 24 25" style="enable-background:new 0 0 24 25;" xml:space="preserve">
<style type="text/css">
	.st0{fill:#396EB8;}
</style>
<path class="st0" d="M0.8,19.5h1.5V24H0.8C0.3,24,0,23.7,0,23.3v-2.9C0,19.9,0.3,19.5,0.8,19.5z M12,9.1c1,0,1.6-0.8,1.6-1.6
	c0-1-0.8-1.6-1.6-1.6s-1.6,0.7-1.6,1.6S11,9.1,12,9.1z M20.1,0.3c0,0.1,0.1,0.3,0.1,0.4V24H3.7V0.8C3.7,0.3,4,0,4.5,0
	c0.2,0,0.3,0.1,0.4,0.2l1.4,1.1l1.4-1.1c0.3-0.2,0.7-0.2,1,0l1.5,1.1l1.4-1.1c0.3-0.2,0.7-0.2,1,0l1.4,1.1l1.4-1.1
	c0.3-0.2,0.7-0.2,0.9,0l1.4,1.1l1.4-1.1C19.3-0.1,19.9-0.1,20.1,0.3z M7.6,8c0,0.4,0.3,0.8,0.8,0.8h0.1c0.2,0,0.4,0.1,0.7,0.3v0.1
	c0.1,0.1,0.1,0.3,0,0.5L9.1,9.8c-0.2,0.4-0.1,0.9,0.3,1.1l0.9,0.7c0.4,0.2,0.9,0,1.1-0.3l0.1-0.1c0.1-0.2,0.3-0.3,0.5-0.3
	s0.4,0.1,0.4,0.2l0.1,0.1c0.2,0.4,0.8,0.5,1.1,0.3l1-0.5c0.4-0.2,0.5-0.8,0.3-1.1V9.7c-0.1-0.2-0.1-0.4,0-0.7
	c0.1-0.2,0.3-0.3,0.5-0.3h0.1c0.4,0,0.8-0.3,0.9-0.8V6.9c0-0.4-0.3-0.8-0.8-0.8h-0.1c-0.2,0-0.4-0.1-0.5-0.3V5.7
	c-0.1-0.1-0.1-0.3,0-0.5L15.2,5c0.2-0.4,0-0.9-0.3-1.1l-1-0.5c-0.4-0.2-0.9,0-1.1,0.3l-0.1,0.1c-0.1,0.2-0.3,0.3-0.5,0.3
	c-0.2,0-0.4-0.1-0.5-0.3l-0.1-0.1c-0.2-0.4-0.8-0.5-1.1-0.3l-1,0.5C8.9,4.2,8.8,4.7,9.1,5v0.1c0.1,0.2,0.1,0.4,0,0.7
	S8.7,6.1,8.5,6.1H8.4C8,6.1,7.6,6.5,7.6,6.9V8z M15.1,20.3c0-0.4-0.3-0.8-0.8-0.8H6.8c-0.4,0-0.8,0.3-0.8,0.8c0,0.4,0.3,0.8,0.8,0.8
	h7.5C14.7,21.1,15.1,20.7,15.1,20.3z M15.1,17.3c0-0.4-0.3-0.8-0.8-0.8H6.8c-0.4,0-0.8,0.3-0.8,0.8S6.3,18,6.8,18h7.5
	C14.7,18,15.1,17.7,15.1,17.3z M18,20.3c0-0.4-0.3-0.8-0.8-0.8h-0.8c-0.4,0-0.8,0.3-0.8,0.8c0,0.4,0.3,0.8,0.8,0.8h0.8
	C17.7,21.1,18,20.7,18,20.3z M18,17.3c0-0.4-0.3-0.8-0.8-0.8h-0.8c-0.4,0-0.8,0.3-0.8,0.8S16,18,16.5,18h0.8
	C17.7,18,18,17.7,18,17.3z M18,14.3c0-0.4-0.3-0.8-0.8-0.8H6.8c-0.4,0-0.8,0.3-0.8,0.8c0,0.4,0.3,0.8,0.8,0.8h10.5
	C17.7,15.1,18,14.7,18,14.3z M23.2,19.5h-1.5V24h1.5c0.4,0,0.8-0.3,0.8-0.8v-2.9C24,19.9,23.7,19.5,23.2,19.5z"/>
</svg>
