<svg width="27" height="25" viewBox="0 0 27 25" fill="none" xmlns="http://www.w3.org/2000/svg">
<path d="M17.0594 17.9598C17.0594 17.0538 16.325 16.3194 15.4191 16.3194V16.3194C14.5132 16.3194 13.7788 17.0538 13.7788 17.9598V21.5278H3.28066V3.47222H13.7788V7.04022C13.7788 7.94615 14.5132 8.68056 15.4191 8.68056V8.68056C16.325 8.68056 17.0594 7.94615 17.0594 7.04023V1C17.0594 0.447717 16.6117 0 16.0594 0H0.999999C0.447714 0 0 0.447715 0 1V24C0 24.5523 0.447715 25 1 25H16.0594C16.6117 25 17.0594 24.5523 17.0594 24V17.9598Z" fill="white"/>
<path d="M20.0125 10.7637H9.61014C8.65131 10.7637 7.87402 11.541 7.87402 12.4998V12.4998C7.87402 13.4586 8.65131 14.2359 9.61013 14.2359H20.0125V17.5032C20.0125 18.4234 21.1503 18.8552 21.7607 18.1666L26.3931 12.9415C26.7368 12.5539 26.7275 11.968 26.3717 11.5914L21.7393 6.68855C21.1181 6.03098 20.0125 6.47067 20.0125 7.37532V10.7637Z" fill="white"/>
</svg>
