<svg width="25" height="25" viewBox="0 0 25 25" fill="none" xmlns="http://www.w3.org/2000/svg">
<circle cx="12.4999" cy="12.4999" r="4.46429" fill="white"/>
<path d="M24.3625 15.1398L22.2222 13.7034C22.3433 12.8106 22.3433 12.1118 22.2222 11.2189L24.3625 9.82143C24.9683 9.47205 25.1702 8.73447 24.8472 8.15217L22.5856 4.38665C22.2222 3.80435 21.4548 3.61025 20.8895 3.92081L18.5068 4.96894C17.8202 4.46429 17.0933 4.03727 16.2856 3.72671L16.0837 1.24224C16.0837 0.543478 15.5183 0 14.8318 0H10.2279C9.54137 0 8.97598 0.543478 8.97598 1.20342L8.73368 3.76553C7.92598 4.07609 7.19906 4.50311 6.51252 5.00776L4.17021 3.95963C3.88752 3.80435 3.52405 3.76553 3.20098 3.84317C2.8779 3.92081 2.59521 4.11491 2.43367 4.42547L0.172127 8.19099C-0.191335 8.77329 0.0509726 9.51087 0.616358 9.86025L2.75674 11.2966C2.63559 12.1894 2.63559 12.8494 2.75674 13.7422L0.656743 15.1786C0.0509727 15.528 -0.150951 16.2655 0.172127 16.8478L2.43367 20.6134C2.59521 20.8851 2.8779 21.118 3.20098 21.1957C3.52405 21.2733 3.88752 21.2345 4.12982 21.0792L6.51252 20.0311C7.19906 20.5357 7.92598 20.9627 8.73368 21.2733L8.9356 23.7578C8.9356 24.4177 9.50098 25 10.1875 25H14.7106C15.3971 25 15.9625 24.4565 15.9625 23.7966L16.1645 21.3121C16.9721 21.0016 17.6587 20.6134 18.3856 20.0699L20.7279 21.118C21.3337 21.4674 22.101 21.2733 22.4645 20.6522L24.726 16.8866C25.1702 16.2655 24.9683 15.4891 24.3625 15.1398ZM12.4894 18.9441C8.77406 18.9441 5.78559 16.0326 5.78559 12.5C5.78559 8.96739 8.81444 6.0559 12.4894 6.0559C16.1645 6.0559 19.1933 8.96739 19.1933 12.5C19.1933 16.1103 16.1241 18.9441 12.4894 18.9441Z" fill="white"/>
</svg>
