<svg width="35" height="28" viewBox="0 0 35 28" fill="none" xmlns="http://www.w3.org/2000/svg">
<rect width="31.3596" height="4.27631" fill="#396EB8"/>
<rect y="22.807" width="31.3596" height="4.27631" fill="#396EB8"/>
<rect y="17.1052" width="19.9561" height="4.27631" fill="#396EB8"/>
<rect y="11.4036" width="19.9561" height="4.27631" fill="#396EB8"/>
<rect y="5.70178" width="19.9561" height="4.27631" fill="#396EB8"/>
<path d="M22.8071 13.5417L31.3598 20.3313L31.3598 6.75213L22.8071 13.5417Z" fill="#396EB8"/>
</svg>
